{
  "project_info": {
    "project_number": "923611319596",
    "project_id": "flutter-workshop-667a8",
    "storage_bucket": "flutter-workshop-667a8.appspot.com"
  },
  "client": [
    {
      "client_info": {
        "mobilesdk_app_id": "1:923611319596:android:f97c1367f8946ba8753089",
        "android_client_info": {
          "package_name": "com.example.cs_flt_1"
        }
      },
      "oauth_client": [
        {
          "client_id": "923611319596-kqcps9pcl6oc1smsbh5435gbfrnj2499.apps.googleusercontent.com",
          "client_type": 3
        }
      ],
      "api_key": [
        {
          "current_key": "AIzaSyA7CWRO7gKS3dbORBH63ByZAuQniZ5hCp8"
        }
      ],
      "services": {
        "appinvite_service": {
          "other_platform_oauth_client": [
            {
              "client_id": "923611319596-kqcps9pcl6oc1smsbh5435gbfrnj2499.apps.googleusercontent.com",
              "client_type": 3
            }
          ]
        }
      }
    }
  ],
  "configuration_version": "1"
}